TOD in Washington, DC
…
allTracts.group.TODonly.centroids <- sf::st_centroid(allTracts.group.TODonly) %>%
  dplyr::mutate(lat = sf::st_coordinates(.)[,1],
                lon = sf::st_coordinates(.)[,2])

## Warning in st_centroid.sf(allTracts.group.TODonly): st_centroid assumes
## attributes are constant over geometries of x

allTracts.group.TODonly.centroids

## Simple feature collection with 152 features and 18 fields
## geometry type:  POINT
## dimension:      XY
## bbox:           xmin: 1287083 ymin: 427623.4 xmax: 1331861 ymax: 477111.5
## projected CRS:  NAD_1983_StatePlane_Maryland_FIPS_1900_Feet
## # A tibble: 152 x 19
##    GEOID TotalPop MedHHInc MedRent MedInc pctWhite pctBlack pctHis pctBlackorHis
##  * <chr>    <dbl>    <dbl>   <dbl>  <dbl>    <dbl>    <dbl>  <dbl>         <dbl>
##  1 1100~     3126    92109    1537  55731    88.2      2.98   8.70         11.7 
##  2 1100~     3129    94598    1215  67813    79.0      3.29   7.54         10.8 
##  3 1100~     5420   110000    1357  51076    79.5     11.3    3.36         14.7 
##  4 1100~     7977   136121    1358  56901    84.4      3.45   6.38          9.83
##  5 1100~     4315   154340    1232  73472    87.8      3.04   8.88         11.9 
##  6 1100~     4886   110625    1449  58979    82.9      2.56  12.8          15.4 
##  7 1100~     6264    79223    1443  63914    85.5      5.04  10.3          15.4 
##  8 1100~     2830    60227     817  33426    18.3     71.4    9.58         81.0 
##  9 1100~     2360    86979    1258  44778    29.2     59.5    1.31         60.8 
## 10 1100~     3724    55486     835  28172     7.76    83.7    5.80         89.5 
## # ... with 142 more rows, and 10 more variables: pctBachelors <dbl>,
## #   pctPoverty <dbl>, pctCarCommute <dbl>, pctPubCommute <dbl>, year <chr>,
## #   geometry <POINT [US_survey_foot]>, TOD <chr>, MedRent.inf <dbl>, lat <dbl>,
## #   lon <dbl>
…
